…
``` r
rowSums(xt)
#> 2016 2017 2018 2019 2020 
#>   14   17    9    9    7
```

``` r
sonde_data %>%
  group_by(site, year, dt) %>%
  summarize(was_sampled = sum(! is.na(depth)) > 1,
            .groups = 'drop_last') %>%
  summarize(n_sampled = sum(was_sampled),
            .groups = 'drop') %>%
  pivot_wider(names_from = year, values_from = n_sampled)
#> # A tibble: 28 x 6
#>    site    `2017` `2018` `2019` `2020` `2016`
#>    <chr>    <int>  <int>  <int>  <int>  <int>
#>  1 BMR02        6      8      8      7     NA
#>  2 CBPR         6      8      9      8     NA
#>  3 CR-31        6     NA     NA     NA     NA
#>  4 CR-44        3     NA     NA     NA     NA
#>  5 CR00         2     NA     NA     NA     NA
#>  6 CRTRIB0      3     NA     NA     NA     NA
#>  7 EEB18        6      8      8      7     NA
#>  8 FR03        NA     NA     NA     NA      3
#>  9 FR04        NA     NA     NA     NA      3
#> 10 FR05A       NA     NA     NA     NA      2
#> # ... with 18 more rows
```
…
