…
``` r
k_means <- k_data %>%
  group_by(site) %>%
  summarize(site_name = first(site_name),
            k_n_tot = sum(k_n),
            k_vals  =  sum(! is.na(k_est)),
            k_mean  = mean(k_est),
            k_se    = sd(k_est)/sqrt(sum(! is.na(k_est))),
            k_gm    = gm_mean(k_est)) %>%
  relocate(site_name)
k_means
#> # A tibble: 26 x 7
#>    site_name                      site  k_n_tot k_vals k_mean    k_se  k_gm
#>    <chr>                          <fct>   <dbl>  <int>  <dbl>   <dbl> <dbl>
#>  1 CLAPBOARD ISLAND - P7CBI       P7CBI     207     18  0.412  0.0183 0.405
#>  2 FORE RIVER - FR09              FR09      418     30  0.497  0.0128 0.492
#>  3 FORT GORGES - P6FGG            P6FGG     193     18  0.497  0.0241 0.487
#>  4 FORE RIVER - FR07              FR07       43      3  0.564  0.0624 0.557
#>  5 FORE RIVER - FR05A             FR05A      14      1  0.595 NA      0.595
#>  6 HARRASEEKET RIVER - HR05       HR05       42      3  0.608  0.0441 0.605
#>  7 FORE RIVER - FR04              FR04       55      4  0.616  0.0368 0.613
#>  8 BANDM RAILROAD TRESTLE - BMR02 BMR02     237     28  0.629  0.0149 0.624
#>  9 LONG CREEK - LC02              LC02       29      4  0.629  0.0411 0.625
#> 10 HARRASEEKET RIVER - HR04       HR04       39      3  0.646  0.0192 0.645
#> # ... with 16 more rows
```
…
