…
Those have familiar site codes from the FOCB data. We need to check to
make sure we are not double counting those data. The other samples
attributed to FOCB do not look like familiar sampling codes, so we will
need to check GIS locations.

## Locations and Site Coding

``` r
dep_data %>%
  select(site_name, site, Latitude, Longitude) %>%
  unique() %>%
  arrange(site, site_name)
#> # A tibble: 54 x 4
#>    site_name                      site        Latitude Longitude
#>    <chr>                          <chr>          <dbl>     <dbl>
#>  1 ANTHOINE CREEK - AC01          AC01            43.6     -70.3
#>  2 ANTHOINE CREEK - AC02          AC02            43.6     -70.3
#>  3 ANTHOINE CREEK - AC04          AC04            43.6     -70.3
#>  4 ANTHOINE CREEK - AC05          AC05            43.6     -70.3
#>  5 BANDM RAILROAD TRESTLE - BMR02 BMR02           43.7     -70.3
#>  6 BANDM RAILROAD TRESTLE - BMR02 BMR02 - SUR     43.7     -70.3
#>  7 PRESUMPSCOT RIVER - CBPR       CBPR            43.7     -70.2
#>  8 COUSINS RIVER - CR-31          CR-31           43.8     -70.2
#>  9 COUSINS RIVER - CR-44          CR-44           43.8     -70.1
#> 10 COUSINS RIVER - CR00           CR00            43.8     -70.1
#> # ... with 44 more rows
```
…
### Turbidity

Turbidity includes both E codes and U codes.

#### “E” codes

The E codes are signals for powers of ten, and will be interpreted
correctly by `as.numeric()`, so we need not worry about them.

``` r
tmp %>%
  select(turbidity) %>%
  filter(grepl('E', turbidity))
#> # A tibble: 136 x 1
#>    turbidity
#>    <chr>    
#>  1 1E-3     
#>  2 1E-3     
#>  3 1E-3     
#>  4 1E-3     
#>  5 1E-3     
#>  6 1E-3     
#>  7 1E-3     
#>  8 1E-3     
#>  9 1E-3     
#> 10 1E-3     
#> # ... with 126 more rows
```
…
It appears that chl\_a and chl\_less\_phaeo are complements, we never
have both at the same time, but either one can occur in a pair with the
phaeophyton.

``` r
tmp %>%
  select(chl_a, chl_less_phaeo, phaeo) %>%
  filter(! (is.na(chl_a) & is.na(chl_less_phaeo)& is.na(phaeo)))
#> # A tibble: 330 x 3
#>    chl_a chl_less_phaeo      phaeo              
#>    <chr> <chr>               <chr>              
#>  1 <NA>  2.1800000000000002  0.77               
#>  2 <NA>  1.9                 1.01               
#>  3 <NA>  0.97899999999999998 0.44400000000000001
#>  4 <NA>  1.6                 0.443              
#>  5 <NA>  2.2799999999999998  0.78900000000000003
#>  6 <NA>  1.0900000000000001  <NA>               
#>  7 <NA>  2.54                0.67               
#>  8 <NA>  4.46                0.9                
#>  9 <NA>  2.59                0.79               
#> 10 <NA>  2.58                0.64               
#> # ... with 320 more rows
```
…
``` r
tmp %>%
  select(nox_n) %>%
  filter(grepl('U', nox_n))
#> # A tibble: 31 x 1
#>    nox_n  
#>    <chr>  
#>  1 U<0.002
#>  2 U<0.002
#>  3 U<0.002
#>  4 U<0.002
#>  5 U<0.002
#>  6 U<0.01 
#>  7 U<0.01 
#>  8 U<0.002
#>  9 U<0.002
#> 10 U<0.005
#> # ... with 21 more rows
```
…
``` r
irr_data <- irr_data %>%
  select(c(site_name:hour), `QC Type`, depth, 
         c(temp:chl_a),
         c(irr_air:`Sample Comments`)
         ) %>%
  arrange(`site_name`, Date, Time, depth)
irr_data
#> # A tibble: 8,396 x 23
#>    site_name      site  Date                Time                dt         month
#>    <chr>          <chr> <dttm>              <dttm>              <date>     <fct>
#>  1 BANDM RAILROA~ BMR02 2017-06-02 00:00:00 1899-12-31 09:22:00 2017-06-02 Jun  
#>  2 BANDM RAILROA~ BMR02 2017-06-02 00:00:00 1899-12-31 09:22:00 2017-06-02 Jun  
#>  3 BANDM RAILROA~ BMR02 2017-06-02 00:00:00 1899-12-31 09:23:00 2017-06-02 Jun  
#>  4 BANDM RAILROA~ BMR02 2017-06-02 00:00:00 1899-12-31 09:23:00 2017-06-02 Jun  
#>  5 BANDM RAILROA~ BMR02 2017-06-02 00:00:00 1899-12-31 09:24:00 2017-06-02 Jun  
#>  6 BANDM RAILROA~ BMR02 2017-06-02 00:00:00 1899-12-31 09:24:00 2017-06-02 Jun  
#>  7 BANDM RAILROA~ BMR02 2017-06-02 00:00:00 1899-12-31 09:25:00 2017-06-02 Jun  
#>  8 BANDM RAILROA~ BMR02 2017-06-02 00:00:00 1899-12-31 09:25:00 2017-06-02 Jun  
#>  9 BANDM RAILROA~ BMR02 2017-06-02 00:00:00 1899-12-31 09:26:00 2017-06-02 Jun  
#> 10 BANDM RAILROA~ BMR02 2017-06-02 00:00:00 1899-12-31 09:26:00 2017-06-02 Jun  
#> # ... with 8,386 more rows, and 17 more variables: year <dbl>, time <chr>,
#> #   hour <dbl>, QC Type <chr>, depth <dbl>, temp <dbl>, salinity <chr>,
#> #   ph <dbl>, pctsat <chr>, do <chr>, turbidity <chr>, chl_a_sonde <chr>,
#> #   chl_a <chr>, irr_air <dbl>, irr_water <dbl>, irr_pct <dbl>,
#> #   Sample Comments <chr>
```
…
